Statistis Panel Wireframe
…
## # A tibble: 7 x 7
##   name_1     pop_den       pop no_banks no_sacco no_atms no_mma
##   <chr>        <dbl>     <dbl>    <dbl>    <dbl>   <dbl>  <dbl>
## 1 Barisal     33011.  9022428.      497     1260      41   2260
## 2 Chittagong 104468. 30491399.     1954     2207     365   6446
## 3 Dhaka      180804. 53998946.     2621     1024    1133  12128
## 4 Khulna      76179. 16325818.      933     1289     142   3485
## 5 Rajshahi    61386. 19702859.     1019     1612     168   4106
## 6 Rangpur     50089. 17217006.      777      831      77   3416
## 7 Sylhet      32061. 13341591.      849      319     139   2047

bangladeshAccessPoints2

## # A tibble: 64 x 7
##    name_2       pop_den      pop no_banks no_sacco no_atms no_mma
##    <chr>          <dbl>    <dbl>    <dbl>    <dbl>   <dbl>  <dbl>
##  1 Bagerhat       4236. 1357419.       88      134       1    284
##  2 Bandarbon       609.  448487.       15        9       3     42
##  3 Barisal        9546. 2521649.      138      229      29    500
##  4 Bhola          6972. 1923244.       90      217       2    449
##  5 Bogra         11305. 3659116.      201      205      59    828
##  6 Borgona        3469. 1001584.       43      150       0    252
##  7 Brahmanbaria  10592. 3478885.      192      154      13    865
##  8 Chandpur      11293. 2606571.      144      552       9    784
##  9 Chittagong    32013. 7810402.      800      687     202   1988
## 10 Choua Danga    3581. 1250725.       63       24       1    273
## # ... with 54 more rows

bangladeshAccessPoints3

## # A tibble: 445 x 7
##    name_3     pop_den     pop no_banks no_sacco no_atms no_mma
##    <chr>        <dbl>   <dbl>    <dbl>    <dbl>   <dbl>  <dbl>
##  1 Abhaynagar   986.  281507.       17       59       4     86
##  2 Adamdighi   1055.  229813.       25       23       4     93
##  3 Aditmari    1059.  248308.       10       11       0     48
##  4 Agailjhara   846.  155595.        5       21       0     32
##  5 Ajmiriganj   984.  253393.        7        2       0     33
##  6 Akhaura     1832.  191125.       14        8       0     69
##  7 Akkelpur     908.  154458.        9       23       0     33
##  8 Alamdanga    917.  376155.       15        4       0     80
##  9 Alfadanga    784.   96086.        8       20       0     27
## 10 Alikadam      34.6  27476.        0        0       0      0
## # ... with 435 more rows
…
